C:\Users\Ronny Contento\Downloads\UTPL\Aplicaciones\Ejercicio-master-7c5057fe41b35f3331b33ff6bf04e47462285f97\Logins_Rest\primerrest\src\main\java\com\mycompany\app\App.java
C:\Users\Ronny Contento\Downloads\UTPL\Aplicaciones\Ejercicio-master-7c5057fe41b35f3331b33ff6bf04e47462285f97\Logins_Rest\primerrest\src\main\java\com\mycompany\app\GreetingController.java
C:\Users\Ronny Contento\Downloads\UTPL\Aplicaciones\Ejercicio-master-7c5057fe41b35f3331b33ff6bf04e47462285f97\Logins_Rest\primerrest\src\main\java\com\mycompany\app\WebSecurityConfig.java
C:\Users\Ronny Contento\Downloads\UTPL\Aplicaciones\Ejercicio-master-7c5057fe41b35f3331b33ff6bf04e47462285f97\Logins_Rest\primerrest\src\main\java\com\mycompany\app\HomeController.java
C:\Users\Ronny Contento\Downloads\UTPL\Aplicaciones\Ejercicio-master-7c5057fe41b35f3331b33ff6bf04e47462285f97\Logins_Rest\primerrest\src\main\java\com\mycompany\app\Greeting.java
